{
  "partial": "fir",
  "completions": [
    "firebase",
    "firefox",
    "fireman",
    "firebase console",
    "Firefly"
  ],
  "pageInfo": {
    "pageNum": 0,
    "itemsPerPage": 25,
    "totalItems": 156,
    "totalPages": 7
  }
}

